7 重回帰分析 – KUT 計量経済学
…
選挙費用ごとに異なる得票率の予測値が得られる。最初の3つだけ表示してみよう。

pred0[1:3]

[1]  7.891485  9.722161 11.552836

この結果をデータフレーム (tibble) にまとめる。

df0 <- tibble(money = money,
              predicted0 = pred0)
df0

# A tibble: 26 × 2
   money predicted0
   <int>      <dbl>
 1     0       7.89
 2     1       9.72
 3     2      11.6 
 4     3      13.4 
 5     4      15.2 
 6     5      17.0 
 7     6      18.9 
 8     7      20.7 
 9     8      22.5 
10     9      24.4 
# ℹ 16 more rows
…
選挙費用ごとに異なる得票率の予測値が得られる。最初の3つだけ表示してみよう。

pred1[1:3]

[1] 26.26251 28.09319 29.92386

この結果をデータフレーム (tibble) にまとめる。

df1 <- tibble(money = money,
              predicted1 = pred1)
df1

# A tibble: 26 × 2
   money predicted1
   <int>      <dbl>
 1     0       26.3
 2     1       28.1
 3     2       29.9
 4     3       31.8
 5     4       33.6
 6     5       35.4
 7     6       37.2
 8     7       39.1
 9     8       40.9
10     9       42.7
# ℹ 16 more rows
…
となり、常に一定であることがわかる（当たり前だが）。つまり、議員経験がある者だけを比べると、選挙費用が100万円増えるごとに、得票率が約1.83ポイント上昇する。

次に、議員経験の偏回帰係数について考えよう。 そのために、以上の結果を、1つのデータフレームにまとめる。

df01 <- df0 |> 
  right_join(df1, by = "money")
df01

# A tibble: 26 × 3
   money predicted0 predicted1
   <int>      <dbl>      <dbl>
 1     0       7.89       26.3
 2     1       9.72       28.1
 3     2      11.6        29.9
 4     3      13.4        31.8
 5     4      15.2        33.6
 6     5      17.0        35.4
 7     6      18.9        37.2
 8     7      20.7        39.1
 9     8      22.5        40.9
10     9      24.4        42.7
# ℹ 16 more rows

このデータフレームに、predicted1 と predicted0 の差 dif_experienceを加えてみよう。

df01 <- df01 |> 
  mutate(dif_experience = predicted1 - predicted0)
df01

# A tibble: 26 × 4
   money predicted0 predicted1 dif_experience
   <int>      <dbl>      <dbl>          <dbl>
 1     0       7.89       26.3           18.4
 2     1       9.72       28.1           18.4
 3     2      11.6        29.9           18.4
 4     3      13.4        31.8           18.4
 5     4      15.2        33.6           18.4
 6     5      17.0        35.4           18.4
 7     6      18.9        37.2           18.4
 8     7      20.7        39.1           18.4
 9     8      22.5        40.9           18.4
10     9      24.4        42.7           18.4
# ℹ 16 more rows
…
